module article-service

go 1.12

require (
	cloud.google.com/go v0.43.0 // indirect
	github.com/coreos/bbolt v1.3.3 // indirect
	github.com/coreos/etcd v3.3.13+incompatible // indirect
	github.com/coreos/go-etcd v2.0.0+incompatible // indirect
	github.com/coreos/go-semver v0.3.0 // indirect
	github.com/coreos/go-systemd v0.0.0-20190719114852-fd7a80b32e1f // indirect
	github.com/go-kit/kit v0.9.0 // indirect
	github.com/golang/groupcache v0.0.0-20190702054246-869f871628b6 // indirect
	github.com/golang/protobuf v1.3.2
	github.com/google/pprof v0.0.0-20190723021845-34ac40c74b70 // indirect
	github.com/grpc-ecosystem/grpc-gateway v1.9.5 // indirect
	github.com/hashicorp/golang-lru v0.5.3 // indirect
	github.com/joho/godotenv v1.3.0
	github.com/json-iterator/go v1.1.7 // indirect
	github.com/kisielk/errcheck v1.2.0 // indirect
	github.com/konsorten/go-windows-terminal-sequences v1.0.2 // indirect
	github.com/kr/pty v1.1.8 // indirect
	github.com/magiconair/properties v1.8.1 // indirect
	github.com/mwitkow/go-conntrack v0.0.0-20190716064945-2f068394615f // indirect
	github.com/pelletier/go-toml v1.4.0 // indirect
	github.com/pkg/errors v0.8.1
	github.com/prometheus/common v0.6.0 // indirect
	github.com/prometheus/procfs v0.0.3 // indirect
	github.com/rogpeppe/fastuuid v1.2.0 // indirect
	github.com/russross/blackfriday v2.0.0+incompatible // indirect
	github.com/satori/go.uuid v1.2.0
	github.com/sirupsen/logrus v1.4.2 // indirect
	github.com/spf13/afero v1.2.2 // indirect
	github.com/spf13/cobra v0.0.5 // indirect
	github.com/spf13/jwalterweatherman v1.1.0 // indirect
	github.com/spf13/viper v1.4.0 // indirect
	github.com/stretchr/objx v0.2.0 // indirect
	github.com/stretchr/testify v1.3.0
	github.com/ugorji/go v1.1.7 // indirect
	go.etcd.io/bbolt v1.3.3 // indirect
	golang.org/x/crypto v0.0.0-20190701094942-4def268fd1a4 // indirect
	golang.org/x/exp v0.0.0-20190718202018-cfdd5522f6f6 // indirect
	golang.org/x/image v0.0.0-20190703141733-d6a02ce849c9 // indirect
	golang.org/x/mobile v0.0.0-20190719004257-d2bd2a29d028 // indirect
	golang.org/x/net v0.0.0-20190724013045-ca1201d0de80 // indirect
	golang.org/x/sys v0.0.0-20190726091711-fc99dfbffb4e // indirect
	golang.org/x/tools v0.0.0-20190727173135-db2fa46ec33c // indirect
	google.golang.org/grpc v1.22.1
	honnef.co/go/tools v0.0.0-20190523083050-ea95bdfd59fc
)
